DAY 4/full_adder.using_2_half_adder/f_adder.vcd
$date
	Tue Oct 14 13:19:38 2025
$end
$version
	Icarus Verilog
$end
$timescale
	1s
$end
$scope module f_adder_tb $end
$var wire 1 ! sum $end
$var wire 1 " carry $end
$var reg 1 # a $end
$var reg 1 $ b $end
$var reg 1 % c $end
$scope module uut $end
$var wire 1 # a $end
$var wire 1 $ b $end
$var wire 1 % c $end
$var wire 1 " carry $end
$var wire 1 ! sum $end
$var wire 1 & w1 $end
$var wire 1 ' w2 $end
$var wire 1 ( w3 $end
$upscope $end
$upscope $end
$enddefinitions $end
$comment Show the parameter values. $end
$dumpall
$end
#0
$dumpvars
0(
0'
0&
0%
0$
0#
0"
0!
$end
#10
1!
1%
#20
1'
0%
1$
#30
1"
1(
0!
1%
#40
0"
0(
1!
0%
0$
1#
#50
1"
1(
0!
1%
#60
0(
1&
0'
0%
1$
#70
1!
1%
